# line 1: address
# line 2 and up: description


:用户指南
 intro, 引言: 什么是WIMS以及它是如何运作的
 what, 我能用WIMS做些什么
 exo, 练习与分数
 tool, 计算与图形工具
 math, 如何输入数学公式
 copy, 版权原则
:本站导游

:虚拟班级
 whatis, 什么是虚拟班级
 stud, 参加者指南
 faqstud, 参加者常有的问题
 sheet, 作业与得分
 creat, 如何建立班级(用于教师)
 faqsup, 主持教师常有的问题
:高级用户及开发者指南
 oef, 在线开发练习
 otf, 在线开发数学工具
 mirror, 设立镜像站
 transl, 把WIMS翻译成我的母语

